…
Wrangling

joindata %>% filter(region == "SA") %>% group_by(region) %>% 
    summarize_if(is.numeric, mean, na.rm = T)

## # A tibble: 1 x 14
##   region   pop  SATV  SATM percent dollars   pay  Total  White  Black Hispanic
##   <chr>  <dbl> <dbl> <dbl>   <dbl>   <dbl> <dbl>  <dbl>  <dbl>  <dbl>    <dbl>
## 1 SA     4841.  417.  459.      52    5.55  31.8 372577 2.24e5 88060.   31753.
## # … with 3 more variables: `Asian/Pacific Islander` <dbl>, `American Indian/
## #   Alaska Native` <dbl>, `Non-resident Alien` <dbl>

joindata %>% arrange(Total)

## # A tibble: 51 x 15
##    States region   pop  SATV  SATM percent dollars   pay Total White Black
##    <chr>  <chr>  <dbl> <dbl> <dbl>   <dbl>   <dbl> <dbl> <dbl> <dbl> <dbl>
##  1 AK     PAC      550   438   476      42    7.89    43 30717 21392  1041
##  2 WY     MTN      454   458   519      13    5.26    29 35936 31778   398
##  3 VT     NE       563   431   466      62    5.74    31 42946 38802   926
##  4 MT     MTN      799   464   523      20    5.18    26 47840 40324   338
##  5 SD     WNC      696   506   555       5    3.73    22 50444 43666   851
##  6 ND     WNC      639   505   564       6    3.68    23 51327 43435   963
##  7 DE     SA       666   433   470      58    6.02    35 53088 36057 10726
##  8 ME     NE      1228   423   463      60    5.89    28 67796 61778  1451
##  9 HI     PAC     1108   404   481      52    5.01    32 70104 17204  1577
## 10 NH     NE      1109   442   486      67    5.50    31 71739 63703  1557
## # … with 41 more rows, and 4 more variables: Hispanic <dbl>, `Asian/Pacific
## #   Islander` <dbl>, `American Indian/ Alaska Native` <dbl>, `Non-resident
## #   Alien` <dbl>
…
joindata %>% mutate(dollars = ntile(pop, 1000)) %>% arrange(desc(dollars)) %>% 
    select(States, dollars)

## # A tibble: 51 x 2
##    States dollars
##    <chr>    <int>
##  1 CA          51
##  2 NY          50
##  3 TX          49
##  4 FL          48
##  5 PA          47
##  6 IL          46
##  7 OH          45
##  8 MI          44
##  9 NJ          43
## 10 NC          42
## # … with 41 more rows
…
